<?xml version="1.0" encoding="utf-8"?>
<!-- Generator: Adobe Illustrator 22.0.0, SVG Export Plug-In . SVG Version: 6.00 Build 0)  -->
<svg version="1.1" id="Layer_1" xmlns="http://www.w3.org/2000/svg" xmlns:xlink="http://www.w3.org/1999/xlink" x="0px" y="0px"
	 viewBox="0 0 84.3 72.9" style="enable-background:new 0 0 84.3 72.9;" xml:space="preserve">
<style type="text/css">
	.st0{fill:#C1C1C1;}
</style>
<path class="st0" d="M82,60.6h-4.8v-4.6c0-1.1-0.9-2.1-2.1-2.1c-1.2,0-2.1,0.9-2.1,2.1v4.6h-4.8c-1.2,0-2.1,0.9-2.1,2.1
	s0.9,2.1,2.1,2.1H73v4.6c0,1.1,0.9,2.1,2.1,2.1c1.2,0,2.1-0.9,2.1-2.1v-4.6H82c1.2,0,2.1-0.9,2.1-2.1S83.2,60.6,82,60.6z"/>
<g>
	<path class="st0" d="M45.7,0C34.8,0,25.9,8.9,25.9,19.8c0,10.9,8.9,19.8,19.8,19.8c10.9,0,19.8-8.9,19.8-19.8
		C65.6,8.9,56.7,0,45.7,0z M45.7,35.5c-8.6,0-15.6-7-15.6-15.7c0-8.6,7-15.6,15.6-15.6c8.6,0,15.6,7,15.6,15.6
		C61.4,28.4,54.4,35.5,45.7,35.5z"/>
	<path class="st0" d="M31,43.8c4.4,3.1,9.5,4.7,14.8,4.8c5.3,0,10.5-1.7,14.9-4.7c4.5,0.6,8.3,3.2,10.6,6.8c0.1,0,0.3,0,0.4,0
		c1.5,0.3,2.9,0.2,4.4,0.3c-2.7-6-8.3-10.5-15.2-11.3l-0.2,0c-0.7-0.1-1.6,0.2-2.2,0.6c-3.7,2.7-8.1,4.1-12.6,4.1
		c-4.5,0-8.9-1.4-12.6-4.1c-0.6-0.5-1.6-0.7-2.1-0.6l-0.2,0l-0.7,0.1l0,0c-9.4,1.4-16.5,9.5-16.5,19v5.8c0,1.7,1.1,3.4,2.7,4.1
		C20,70.3,28.7,73,45.9,73c9.8,0,16.9-0.9,21.8-2c-0.1-1.4-0.2-2.8-0.3-4.2c-4.6,1-11.5,2-21.6,2c-16.9,0-25-2.8-27.7-4
		c-0.1-0.1-0.2-0.3-0.2-0.3v-5.8C17.9,51.1,23.5,44.7,31,43.8z"/>
</g>
<polygon class="st0" points="0.1,27.3 0.1,30.4 10.8,35.7 0.1,41 0.1,44.1 14.3,36.8 14.3,34.6 "/>
</svg>
