<?xml version="1.0" encoding="utf-8"?>
<!-- Generator: Adobe Illustrator 22.0.0, SVG Export Plug-In . SVG Version: 6.00 Build 0)  -->
<svg version="1.1" id="Layer_1" xmlns="http://www.w3.org/2000/svg" xmlns:xlink="http://www.w3.org/1999/xlink" x="0px" y="0px"
	 viewBox="0 0 64 64" style="enable-background:new 0 0 64 64;" xml:space="preserve">
<style type="text/css">
	.st0{fill:#A7A9AC;}
</style>
<g>
	<path class="st0" d="M44.6,9.5H19.5c-1.2,0-2.1,0.8-2.1,1.7v41.5c0,0.7,0.5,1.3,1.3,1.6c0.3,0.1,0.6,0.2,0.9,0.2
		c0.5,0,0.9-0.1,1.3-0.3l12.5-7.6c0.5-0.3,0.8-0.7,0.8-1.2c0.1-0.5-0.1-1-0.5-1.3c-0.7-0.7-2-0.8-2.9-0.3l-9.1,5.6V13h20.8v36.3
		l-3.6-2.2c-0.9-0.5-2.2-0.4-2.9,0.3c-0.4,0.4-0.6,0.8-0.5,1.3c0.1,0.5,0.4,0.9,0.8,1.2l7,4.3c0.6,0.4,1.4,0.5,2.2,0.2
		c0.8-0.3,1.2-0.9,1.2-1.6V11.2C46.7,10.3,45.7,9.5,44.6,9.5z"/>
	<g>
		<path class="st0" d="M22.1,18.7h16.2c0.9,0,1.6-0.6,1.6-1.4s-0.7-1.4-1.6-1.4H22.1c-0.9,0-1.5,0.6-1.5,1.4S21.2,18.7,22.1,18.7z"
			/>
		<path class="st0" d="M38.3,19.6H22.1c-0.9,0-1.5,0.6-1.5,1.4s0.7,1.4,1.5,1.4h16.2c0.9,0,1.6-0.6,1.6-1.4S39.1,19.6,38.3,19.6z"/>
		<path class="st0" d="M33.5,23.4H22.1c-0.9,0-1.5,0.6-1.5,1.4c0,0.8,0.7,1.4,1.5,1.4h11.4c0.9,0,1.5-0.6,1.5-1.4
			C35,24,34.3,23.4,33.5,23.4z"/>
	</g>
</g>
</svg>
