<?xml version="1.0" encoding="utf-8"?>
<!-- Generator: Adobe Illustrator 22.0.0, SVG Export Plug-In . SVG Version: 6.00 Build 0)  -->
<svg version="1.1" id="Layer_1" xmlns="http://www.w3.org/2000/svg" xmlns:xlink="http://www.w3.org/1999/xlink" x="0px" y="0px"
	 viewBox="0 0 512 512" style="enable-background:new 0 0 512 512;" xml:space="preserve">
<style type="text/css">
	.st0{fill:#FFFFFF;}
	.st1{font-family:'Roboto-Regular';}
	.st2{font-size:68.097px;}
</style>
<text transform="matrix(1 0 0 1 164.877 270.1143)" class="st0 st1 st2">TanpaJudul</text>
<g>
	<path class="st0" d="M115,221.9c0.9-0.6,1.8-1.2,2.6-1.9c0.4-0.3,0.8-0.6,1.2-0.9l0.6-0.4c0,0-7.9,6.5-26.2,7.5
		c-5.4,0.3-9.2-1.5-11.3-4.4c-3.1-4.4-1.4-10.8-0.8-12.2l1.2-2.9l-2.3,2.2c-0.3,0.3-0.6,0.6-0.9,1c-2,2.7-2.7,5.9-2.1,8.8
		c0.6,2.8,2.5,5.2,5.1,7C90.8,231.6,108.9,225.7,115,221.9z"/>
	<path class="st0" d="M78.9,225.3c-0.9-1.7-2.6-2.8-4.7-3l-1.1-0.1l0.5,1c1.5,3,4.6,6,11.1,7.2C84.7,230.5,81.6,230.5,78.9,225.3z"
		/>
	<path class="st0" d="M94.8,249c1-0.1,5-0.5,5-0.5l-0.2-2.4c0,0-1.8,0-2.2,0c0,0,0,0,0,0l-1.4,0c-9.4,0-18.8,0-28.1,0.1
		c-0.4,0-0.7,0-1.1,0.1l-0.8,0.1c0,0,7.4,3.3,13,3.2C84,249.4,89.2,249.4,94.8,249z"/>
	<path class="st0" d="M99.7,252.1L68.8,252c-0.1,0-0.3,0-0.4,0l-1.4,0c0,0,3.6,3,8.7,3.1l1,0c6.9,0.1,13.9-0.1,19.1-0.1
		c0.9,0,3.5-0.3,3.8-0.4L99.7,252.1z"/>
	<path class="st0" d="M76.8,243.5c5.4-0.2,11.3-0.1,18-0.5c1-0.1,4.6-0.3,4.6-0.3l-0.1-1.3c-0.3-0.6-0.6-1.2-1.2-1.2
		c-9.9,0.2-19.8,0.5-29.8,0.8l-4,0.1C64.3,241,67.8,243.9,76.8,243.5z"/>
	<path class="st0" d="M114.2,255.2l-0.1,0.9l1-0.1c4.4-0.5,5.6-3.7,6.6-6.6l0.6-1.6l-0.5,0.1c-0.5,0.1-0.9,0.4-1,0.8
		C118.6,254.2,114.5,252.3,114.2,255.2z"/>
	<path class="st0" d="M173.8,224.1c-4.3,2.3-8.2,4.1-11.9,5.7c-6.5,2.8-13.2,4.9-19.8,6.1c-5,0.9-9.6,1.4-13.9,1.3
		c-0.8,0-1.6-0.2-2.5-0.1c-5.4,0.7-5.7-0.2-6.5-3.6c-0.8-3.5-3.9-4.5-7.6-4.1c-3.2,0.4-6.4,0.9-9.6,1.3c-1.9,0.3-3.7,0.5-5.6,0.8
		l-33.1,4.5c0,0,22.8,0.1,34.5-1.3c3.5-0.4,8.8-0.3,11.5-0.3c1.8,0,4.6,2.1,5.4,4c2.4,5.6,6.8,5.2,8.9,4.5c1.5-0.5,3.1-0.8,4.7-1.1
		l0.5-0.1c6.3-0.9,11.6-2.1,17.8-3.8c18.2-5.1,28.2-14.6,28.2-14.6L173.8,224.1z"/>
	<path class="st0" d="M70.3,217.7c0.6-0.2,1.2-0.3,1.9-0.5c1.3-0.3,2.1-1.2,2.4-2.8c0.6-2.9,1-7,3.1-8.6
		c23.2-17.3,49.2,3.2,49.2,3.2s-9.5-14.9-35.2-12.5c-6.7,0.6-11.7,2.4-15.9,5.3c-2.3,1.6-5.5,4.4-6.2,8.9c-0.3,2.3-1.7,3.6-4.4,4.3
		c-0.3,0.1-0.6,0.1-0.9,0.2l-0.5,0.1c-6.3,1.2-13,1.9-20.5,2.1l-9.9-0.2c-7.6-0.8-13.5-2.6-13.5-2.6c0,0,13.7,8,43.6,4.6
		C65.8,218.9,68.1,218.3,70.3,217.7z"/>
	<path class="st0" d="M140.6,229.1c0-0.9,0.1-1.7,0.1-2.6c0-24.4-19.8-44.2-44.2-44.2c-19.4,0-37.2,13.8-42.7,32.9
		c2.3-0.2,4.5-0.4,6.8-0.7c5.7-14.9,20.4-25.2,35.9-25.2c20.9,0,37.9,16.8,38.2,37.6c0,2.5-0.4,8.6-0.4,8.6l6.1-0.5l0.2-4.4l0,0
		c0,0,0-0.1,0-0.1L140.6,229.1L140.6,229.1z"/>
	<path class="st0" d="M132.8,243.1c-4.8,16-19.4,26.7-36.4,26.7c-21.1,0-38.2-17.1-38.2-38.2c0-1.7,0.2-3.8,0.4-5.6
		c0.2-1.2,0.9-5.4,0.9-5.4h-6.4c0,0-1,5.8-1,10.1c0,35.2,28.4,69.6,44.2,77.1c13.9-6.6,37.6-35.6,43.2-65.8L132.8,243.1z"/>
</g>
</svg>
